
<svg width="118px" height="36px" viewBox="596 66 118 36" version="1.1" xmlns="http://www.w3.org/2000/svg" xmlns:xlink="http://www.w3.org/1999/xlink">
    <!-- Generator: Sketch 42 (36781) - http://www.bohemiancoding.com/sketch -->
    <desc>Created with Sketch.</desc>
    <defs>
        <rect id="path-1" x="0" y="0.411764706" width="117" height="34" rx="6.8"></rect>
        <mask id="mask-2" maskContentUnits="userSpaceOnUse" maskUnits="objectBoundingBox" x="0" y="0" width="117" height="34" fill="white">
            <use xlink:href="#path-1"></use>
        </mask>
    </defs>
    <g id="Rectangle-1-+-Imported-Layers" stroke="none" stroke-width="1" fill="none" fill-rule="evenodd" transform="translate(596.500000, 66.588235)">
        <use id="Rectangle-1" stroke="#4F5A6C" mask="url(#mask-2)" stroke-width="2" xlink:href="#path-1"></use>
        <path d="M21.5556757,11.0491905 C23.761495,11.0491905 25.1720252,13.1827067 25.1720252,13.1827067 C25.1720252,13.1827067 23.0203136,14.3499429 23.0203136,16.8849019 C23.0203136,19.8936105 25.7233635,20.7688029 25.7233635,20.7688029 C25.7233635,20.7688029 23.5898432,25.8293305 21.1941807,25.8293305 C19.847087,25.8293305 19.7570631,25.0546162 17.9668465,25.0546162 C16.4121847,25.0546162 15.8879003,25.8293305 14.703596,25.8293305 C12.4432027,25.8293305 9.52325581,20.8965133 9.52325581,16.8849019 C9.52325581,12.7178781 12.4795854,11.0491905 14.3327721,11.0491905 C15.9601993,11.0491905 16.6379442,12.0065495 17.9486551,12.0065495 C19.051798,12.0065495 19.9198525,11.0491905 21.5556757,11.0491905 L21.5556757,11.0491905 Z M21.1764558,6.8 C21.5015681,8.84242857 19.6483814,11.3684667 17.4336997,11.2863 C17.1081209,8.68748571 19.4949209,6.93710095 21.1764558,6.8 Z M37.8978756,12.1136349 L39.4026998,12.1136349 L43.4012326,22.3429409 L41.8964084,22.3429409 L40.778539,19.2626877 L36.450378,19.2626877 L35.3038453,22.3429409 L33.9136744,22.3429409 L37.8978756,12.1136349 Z M36.8803278,18.116547 L40.3485893,18.116547 L38.6431218,13.3457362 L38.6144585,13.3457362 L36.8803278,18.116547 Z M44.2468005,14.9360065 L45.4649915,14.9360065 L45.4649915,15.9388796 L45.4936548,15.9388796 C45.694299,15.5281771 46.0095924,15.229706 46.4395443,15.0434572 C46.8694962,14.8572084 47.3424362,14.7640854 47.8583785,14.7640854 C48.4316477,14.7640854 48.9308622,14.8691472 49.3560369,15.0792741 C49.7812115,15.2894009 50.1347222,15.5735455 50.4165796,15.9317162 C50.698437,16.289887 50.9110211,16.7029711 51.0543384,17.1709809 C51.1976557,17.6389907 51.2693133,18.1356467 51.2693133,18.6609638 C51.2693133,19.186281 51.2000443,19.682937 51.0615043,20.1509468 C50.9229642,20.6189566 50.7127686,21.0272652 50.4309113,21.3758847 C50.1490539,21.7245043 49.7955432,21.9990977 49.3703685,22.1996734 C48.9451938,22.400249 48.4507566,22.5005353 47.8870418,22.5005353 C47.7055066,22.5005353 47.5024768,22.4814331 47.2779463,22.4432283 C47.0534159,22.4050234 46.8312774,22.3429414 46.6115242,22.2569804 C46.391771,22.1710194 46.183964,22.0540187 45.988097,21.9059748 C45.79223,21.7579309 45.6274176,21.5740726 45.4936548,21.3543946 L45.4649915,21.3543946 L45.4649915,25.1653125 L44.2468005,25.1653125 L44.2468005,14.9360065 Z M49.979464,18.5750033 C49.979464,18.2311593 49.9340809,17.8944839 49.8433133,17.5649668 C49.7525456,17.2354497 49.6140076,16.941754 49.4276951,16.6838711 C49.2413827,16.4259881 49.0025241,16.22064 48.7111122,16.0678204 C48.4197003,15.9150009 48.0781326,15.8385923 47.6863986,15.8385923 C47.2755557,15.8385923 46.9268221,15.9197764 46.6401875,16.0821472 C46.3535529,16.2445179 46.1194715,16.4570294 45.9379362,16.719688 C45.756401,16.9823465 45.6250287,17.2808177 45.5438156,17.6151104 C45.4626025,17.9494031 45.4219965,18.2884664 45.4219965,18.6323103 C45.4219965,18.9952567 45.464991,19.3462588 45.5509814,19.6853271 C45.6369718,20.0243955 45.7731212,20.3228666 45.9594337,20.5807496 C46.1457462,20.8386325 46.3869934,21.0463685 46.6831825,21.2039636 C46.9793716,21.3615587 47.3376595,21.4403551 47.7580569,21.4403551 C48.1784543,21.4403551 48.5295764,21.359171 48.8114338,21.1968002 C49.0932912,21.0344295 49.3202068,20.8195302 49.4921876,20.5520961 C49.6641684,20.2846619 49.7883748,19.9790274 49.8648107,19.6351835 C49.9412466,19.2913395 49.979464,18.9379497 49.979464,18.5750033 Z M52.7454742,14.9360065 L53.9636652,14.9360065 L53.9636652,15.9388796 L53.9923285,15.9388796 C54.1929727,15.5281771 54.5082661,15.229706 54.938218,15.0434572 C55.3681699,14.8572084 55.8411099,14.7640854 56.3570522,14.7640854 C56.9303214,14.7640854 57.4295359,14.8691472 57.8547106,15.0792741 C58.2798852,15.2894009 58.633396,15.5735455 58.9152533,15.9317162 C59.1971107,16.289887 59.4096948,16.7029711 59.5530121,17.1709809 C59.6963294,17.6389907 59.767987,18.1356467 59.767987,18.6609638 C59.767987,19.186281 59.698718,19.682937 59.560178,20.1509468 C59.4216379,20.6189566 59.2114423,21.0272652 58.929585,21.3758847 C58.6477276,21.7245043 58.2942169,21.9990977 57.8690422,22.1996734 C57.4438676,22.400249 56.9494303,22.5005353 56.3857155,22.5005353 C56.2041803,22.5005353 56.0011505,22.4814331 55.77662,22.4432283 C55.5520896,22.4050234 55.3299511,22.3429414 55.1101979,22.2569804 C54.8904447,22.1710194 54.6826377,22.0540187 54.4867707,21.9059748 C54.2909037,21.7579309 54.1260913,21.5740726 53.9923285,21.3543946 L53.9636652,21.3543946 L53.9636652,25.1653125 L52.7454742,25.1653125 L52.7454742,14.9360065 Z M58.4781377,18.5750033 C58.4781377,18.2311593 58.4327546,17.8944839 58.341987,17.5649668 C58.2512193,17.2354497 58.1126814,16.941754 57.9263689,16.6838711 C57.7400564,16.4259881 57.5011978,16.22064 57.2097859,16.0678204 C56.9183741,15.9150009 56.5768063,15.8385923 56.1850723,15.8385923 C55.7742294,15.8385923 55.4254958,15.9197764 55.1388612,16.0821472 C54.8522266,16.2445179 54.6181452,16.4570294 54.4366099,16.719688 C54.2550747,16.9823465 54.1237024,17.2808177 54.0424893,17.6151104 C53.9612762,17.9494031 53.9206702,18.2884664 53.9206702,18.6323103 C53.9206702,18.9952567 53.9636648,19.3462588 54.0496551,19.6853271 C54.1356455,20.0243955 54.2717949,20.3228666 54.4581074,20.5807496 C54.6444199,20.8386325 54.8856671,21.0463685 55.1818562,21.2039636 C55.4780453,21.3615587 55.8363332,21.4403551 56.2567306,21.4403551 C56.677128,21.4403551 57.0282502,21.359171 57.3101075,21.1968002 C57.5919649,21.0344295 57.8188806,20.8195302 57.9908613,20.5520961 C58.1628421,20.2846619 58.2870486,19.9790274 58.3634845,19.6351835 C58.4399204,19.2913395 58.4781377,18.9379497 58.4781377,18.5750033 Z M71.3049724,15.1079276 C71.2285365,14.3724836 70.9634035,13.840011 70.5095653,13.5104939 C70.0557272,13.1809768 69.4753008,13.0162207 68.7682688,13.0162207 C68.4816342,13.0162207 68.199781,13.044874 67.9227009,13.1021813 C67.6456208,13.1594886 67.3995964,13.2549994 67.1846205,13.3887165 C66.9696445,13.5224336 66.7976663,13.7015163 66.6686808,13.9259699 C66.5396952,14.1504236 66.4752034,14.4297926 66.4752034,14.7640854 C66.4752034,15.0792756 66.5683582,15.3347669 66.7546707,15.530567 C66.9409832,15.726367 67.1893962,15.8863475 67.499917,16.0105134 C67.8104378,16.1346793 68.1615599,16.2373533 68.5532939,16.3185387 C68.9450279,16.3997241 69.3439217,16.4880716 69.7499874,16.5835838 C70.1560531,16.679096 70.554947,16.7913211 70.9466809,16.9202626 C71.3384149,17.0492041 71.689537,17.2235112 72.0000579,17.4431893 C72.3105787,17.6628674 72.5589916,17.9398486 72.7453041,18.2741413 C72.9316166,18.6084341 73.0247715,19.0286815 73.0247715,19.5348962 C73.0247715,20.0793157 72.9029536,20.5449307 72.6593142,20.9317552 C72.4156748,21.3185796 72.10277,21.6337651 71.7205905,21.8773213 C71.338411,22.1208774 70.9108542,22.2975723 70.4379071,22.4074114 C69.9649599,22.5172504 69.4944085,22.5721691 69.0262387,22.5721691 C68.4529694,22.5721691 67.9107604,22.500536 67.3995954,22.3572677 C66.8884303,22.2139994 66.4393762,21.9967124 66.0524194,21.7054002 C65.6654627,21.4140879 65.3597237,21.0415959 65.1351933,20.5879129 C64.9106628,20.13423 64.7983993,19.5969819 64.7983993,18.9761525 L66.0882486,18.9761525 C66.0882486,19.4059575 66.1718491,19.7760617 66.3390526,20.0864764 C66.5062561,20.396891 66.726006,20.6523824 66.9983089,20.852958 C67.2706118,21.0535336 67.5882937,21.2015753 67.9513642,21.2970875 C68.3144347,21.3925997 68.6870542,21.4403551 69.0692336,21.4403551 C69.3749772,21.4403551 69.6831048,21.4117019 69.9936256,21.3543946 C70.3041465,21.2970872 70.583611,21.1991887 70.8320277,21.060696 C71.0804443,20.9222033 71.2810856,20.7335695 71.4339573,20.494789 C71.5868291,20.2560085 71.6632639,19.950374 71.6632639,19.5778764 C71.6632639,19.2244813 71.570109,18.937949 71.3837965,18.7182709 C71.197484,18.4985928 70.9490711,18.3195101 70.6385503,18.1810174 C70.3280294,18.0425247 69.9769073,17.9302996 69.5851734,17.8443386 C69.1934394,17.7583776 68.7945455,17.6700301 68.3884798,17.5792935 C67.9824141,17.4885569 67.5835203,17.3834951 67.1917863,17.2641048 C66.8000524,17.1447146 66.4489302,16.9871218 66.1384094,16.7913218 C65.8278886,16.5955218 65.5794756,16.3424182 65.3931631,16.0320035 C65.2068506,15.7215889 65.1136958,15.3323825 65.1136958,14.8643727 C65.1136958,14.3486068 65.2187936,13.9020939 65.4289923,13.5248207 C65.639191,13.1475475 65.9186555,12.8371375 66.2673943,12.5935813 C66.6161331,12.3500252 67.0126384,12.1685547 67.456922,12.0491645 C67.9012057,11.9297742 68.3574256,11.87008 68.8255954,11.87008 C69.3510922,11.87008 69.8383637,11.932162 70.2874246,12.0563279 C70.7364855,12.1804937 71.1306022,12.3762908 71.4697865,12.643725 C71.8089708,12.9111592 72.0764924,13.2478346 72.2723594,13.6537615 C72.4682264,14.0596884 72.5757127,14.5444056 72.5948217,15.1079276 L71.3049724,15.1079276 Z M76.1634048,14.9360065 L77.6395656,14.9360065 L77.6395656,16.0105134 L76.1634048,16.0105134 L76.1634048,20.6094031 C76.1634048,20.7526714 76.1753477,20.8672843 76.1992339,20.9532453 C76.2231201,21.0392063 76.2685033,21.1060638 76.3353847,21.1538199 C76.4022661,21.201576 76.4954209,21.232617 76.614852,21.2469439 C76.7342831,21.2612707 76.8895412,21.268434 77.0806309,21.268434 L77.6395656,21.268434 L77.6395656,22.3429409 L76.7080078,22.3429409 C76.3927097,22.3429409 76.1227995,22.321451 75.8982691,22.2784705 C75.6737386,22.23549 75.4922061,22.1566936 75.353666,22.042079 C75.215126,21.9274644 75.1124168,21.765096 75.0455354,21.5549692 C74.978654,21.3448423 74.9452138,21.0678611 74.9452138,20.7240172 L74.9452138,16.0105134 L73.6840278,16.0105134 L73.6840278,14.9360065 L74.9452138,14.9360065 L74.9452138,12.7153588 L76.1634048,12.7153588 L76.1634048,14.9360065 Z M78.5854551,18.6466371 C78.5854551,18.1022175 78.6618899,17.5936226 78.8147617,17.1208372 C78.9676335,16.6480518 79.1969377,16.2373555 79.5026813,15.8887359 C79.8084249,15.5401164 80.1858215,15.2655229 80.6348823,15.0649473 C81.0839432,14.8643717 81.5998778,14.7640854 82.1827015,14.7640854 C82.7750797,14.7640854 83.2934028,14.8643717 83.7376865,15.0649473 C84.1819701,15.2655229 84.5569781,15.5401164 84.8627217,15.8887359 C85.1684653,16.2373555 85.3977695,16.6480518 85.5506413,17.1208372 C85.7035131,17.5936226 85.7799479,18.1022175 85.7799479,18.6466371 C85.7799479,19.1910567 85.7035131,19.6972637 85.5506413,20.1652736 C85.3977695,20.6332834 85.1684653,21.0415919 84.8627217,21.3902115 C84.5569781,21.738831 84.1819701,22.0110367 83.7376865,22.2068367 C83.2934028,22.4026368 82.7750797,22.5005353 82.1827015,22.5005353 C81.5998778,22.5005353 81.0839432,22.4026368 80.6348823,22.2068367 C80.1858215,22.0110367 79.8084249,21.738831 79.5026813,21.3902115 C79.1969377,21.0415919 78.9676335,20.6332834 78.8147617,20.1652736 C78.6618899,19.6972637 78.5854551,19.1910567 78.5854551,18.6466371 Z M79.8753044,18.6466371 C79.8753044,19.0955444 79.9350191,19.4943019 80.0544502,19.8429215 C80.1738812,20.191541 80.3386937,20.4828489 80.5488924,20.7168538 C80.7590911,20.9508587 81.0051155,21.1299414 81.2869728,21.2541072 C81.5688302,21.3782731 81.8674034,21.4403551 82.1827015,21.4403551 C82.4979996,21.4403551 82.7965728,21.3782731 83.0784302,21.2541072 C83.3602875,21.1299414 83.6063119,20.9508587 83.8165106,20.7168538 C84.0267093,20.4828489 84.1915218,20.191541 84.3109528,19.8429215 C84.4303839,19.4943019 84.4900986,19.0955444 84.4900986,18.6466371 C84.4900986,18.1977297 84.4303839,17.7989722 84.3109528,17.4503527 C84.1915218,17.1017331 84.0267093,16.8080375 83.8165106,16.569257 C83.6063119,16.3304765 83.3602875,16.149006 83.0784302,16.0248402 C82.7965728,15.9006743 82.4979996,15.8385923 82.1827015,15.8385923 C81.8674034,15.8385923 81.5688302,15.9006743 81.2869728,16.0248402 C81.0051155,16.149006 80.7590911,16.3304765 80.5488924,16.569257 C80.3386937,16.8080375 80.1738812,17.1017331 80.0544502,17.4503527 C79.9350191,17.7989722 79.8753044,18.1977297 79.8753044,18.6466371 Z M87.1701188,14.9360065 L88.3166515,14.9360065 L88.3166515,16.4976232 L88.3453148,16.4976232 C88.6415039,15.8958963 89.004569,15.4517712 89.4345209,15.1652346 C89.8644728,14.878698 90.4090704,14.7449829 91.06833,14.7640854 L91.06833,16.0534937 C90.5810512,16.0534937 90.1654372,16.1203512 89.8214757,16.2540683 C89.4775141,16.3877854 89.2004382,16.5835825 88.9902395,16.8414654 C88.7800407,17.0993484 88.6271712,17.4121462 88.5316264,17.7798682 C88.4360815,18.1475901 88.3883098,18.5702253 88.3883098,19.0477863 L88.3883098,22.3429409 L87.1701188,22.3429409 L87.1701188,14.9360065 Z M98.0478479,19.9933524 C97.8854216,20.8243086 97.5271337,21.4499042 96.9729735,21.8701579 C96.4188132,22.2904116 95.7213461,22.5005353 94.8805513,22.5005353 C94.2881731,22.5005353 93.7746271,22.4050245 93.3398979,22.2140001 C92.9051688,22.0229757 92.5397151,21.7555455 92.243526,21.4117016 C91.9473369,21.0678577 91.7251984,20.6571613 91.5771039,20.1796003 C91.4290093,19.7020393 91.3454088,19.1815056 91.3262999,18.6179836 C91.3262999,18.0544616 91.412289,17.5387034 91.5842697,17.0706936 C91.7562505,16.6026838 91.9974977,16.196763 92.3080185,15.852919 C92.6185393,15.5090751 92.9863816,15.2416449 93.4115562,15.0506205 C93.8367309,14.8595961 94.3025052,14.7640854 94.808893,14.7640854 C95.4681526,14.7640854 96.0151387,14.9001882 96.4498679,15.172398 C96.8845971,15.4446078 97.2333306,15.7908343 97.496079,16.211088 C97.7588274,16.6313417 97.9403599,17.0897934 98.040682,17.5864569 C98.1410042,18.0831204 98.1816101,18.5558987 98.1625011,19.0048061 L92.6161492,19.0048061 C92.6065947,19.3295476 92.644812,19.6375698 92.7308024,19.928882 C92.8167928,20.2201943 92.9553308,20.4780733 93.1464205,20.702527 C93.3375103,20.9269807 93.581146,21.1060634 93.8773351,21.2397805 C94.1735242,21.3734976 94.5222578,21.4403551 94.9235462,21.4403551 C95.4394885,21.4403551 95.8622682,21.3209667 96.191898,21.0821861 C96.5215278,20.8434056 96.7388892,20.4804647 96.8439885,19.9933524 L98.0478479,19.9933524 Z M96.8726518,17.9302991 C96.8535429,17.6437625 96.789051,17.3715568 96.6791744,17.1136739 C96.5692978,16.8557909 96.4212055,16.6337284 96.234893,16.4474796 C96.0485805,16.2612308 95.8288306,16.1131891 95.5756367,16.00335 C95.3224428,15.893511 95.0429783,15.8385923 94.7372347,15.8385923 C94.4219366,15.8385923 94.1376949,15.893511 93.884501,16.00335 C93.6313071,16.1131891 93.4139457,16.2636185 93.2324105,16.4546429 C93.0508752,16.6456673 92.9075601,16.8677299 92.8024607,17.1208372 C92.6973614,17.3739446 92.6352581,17.6437625 92.6161492,17.9302991 L96.8726518,17.9302991 Z" id="Imported-Layers" fill="#4F5A6C"></path>
    </g>
</svg>