
<svg width="118px" height="36px" viewBox="726 66 118 36" version="1.1" xmlns="http://www.w3.org/2000/svg" xmlns:xlink="http://www.w3.org/1999/xlink">
    <!-- Generator: Sketch 42 (36781) - http://www.bohemiancoding.com/sketch -->
    <desc>Created with Sketch.</desc>
    <defs>
        <rect id="path-1" x="0" y="0.411764706" width="117" height="34" rx="6.8"></rect>
        <mask id="mask-2" maskContentUnits="userSpaceOnUse" maskUnits="objectBoundingBox" x="0" y="0" width="117" height="34" fill="white">
            <use xlink:href="#path-1"></use>
        </mask>
    </defs>
    <g id="Rectangle-1-+-Fill-1-+-google-play" stroke="none" stroke-width="1" fill="none" fill-rule="evenodd" transform="translate(726.500000, 66.588235)">
        <use id="Rectangle-1" stroke="#4F5A6C" mask="url(#mask-2)" stroke-width="2" xlink:href="#path-1"></use>
        <path d="M77.4870145,20.3516478 L76.7065498,21.0965278 C76.5261821,21.1967907 76.3467816,21.3131935 76.1678647,21.3958492 C75.6257947,21.6447946 75.0745371,21.7073978 74.5846915,21.7073978 C74.0634145,21.7073978 73.2461993,21.6731617 72.412543,21.0632698 C71.2544185,20.2381796 70.7481319,18.8198264 70.7481319,17.5839028 C70.7481319,15.024998 72.807611,13.77 74.4874961,13.77 C75.0745371,13.77 75.6775355,13.9186825 76.1678647,14.2321875 C76.9831457,14.7775198 77.1939775,15.4862073 77.3109989,15.8657391 L73.4749229,17.4332639 L72.2186358,17.5320595 C72.6253091,19.630244 74.0285983,20.8505169 75.579373,20.8505169 C76.354035,20.8505169 76.928987,20.5947242 77.4565503,20.3311062 C77.4565503,20.3311062 77.5624497,20.2753502 77.4870145,20.3516478 L77.4870145,20.3516478 Z M75.1726996,16.1782659 L72.2021947,17.4821726 C72.1857537,17.1857857 72.1528717,16.8893988 72.1528717,16.6111081 C72.1528717,14.8278958 73.3767603,14.3143542 74.0285983,14.3143542 C74.9086762,14.3143542 75.6461042,15.0758631 75.6461042,15.7351528 C75.6461042,15.9650238 75.4841118,16.0638194 75.1726996,16.1782659 Z M69.4662161,20.223996 C69.4662161,20.8651895 69.579369,20.9649633 70.1156363,21.0153393 C70.3951336,21.0485972 70.6736638,21.0632698 70.9492926,21.0965278 L70.3458105,21.4599196 L67.4700833,21.4599196 C67.8472596,20.9649633 67.9120565,20.9155655 67.9120565,20.5859206 L67.9120565,20.2176379 L67.9057702,10.4045903 L66.6359435,10.4045903 L67.8583814,9.80888194 L70.1920387,9.80888194 C69.6862356,10.1052688 69.5348816,10.2857421 69.4700846,10.8633542 L69.4662161,20.223996 Z M65.0063486,14.5799286 C65.3811071,14.8914772 66.1630225,15.5527232 66.1630225,16.8067431 C66.1630225,18.0289722 65.4816874,18.6051171 64.7945496,19.1504494 C64.5837178,19.3651587 64.3371025,19.5979643 64.3371025,19.9579325 C64.3371025,20.3232808 64.5837178,20.5213611 64.761184,20.6690655 L65.3506428,21.1292966 C66.0672777,21.7411448 66.7205664,22.302128 66.7205664,23.4417014 C66.7205664,24.9940645 65.2350722,26.5596329 62.4280103,26.5596329 C60.0634053,26.5596329 58.9202711,25.4205486 58.9202711,24.1992976 C58.9202711,23.6050565 59.2128245,22.7633373 60.1780088,22.1867034 C61.1896149,21.5611607 62.560022,21.4775268 63.2940651,21.4286181 C63.064858,21.1292966 62.8032524,20.8157917 62.8032524,20.3042063 C62.8032524,20.0244484 62.8864246,19.8576696 62.9666954,19.6610565 C62.788262,19.6781746 62.608378,19.6957817 62.4449349,19.6957817 C60.7142761,19.6957817 59.7360356,18.3899187 59.7360356,17.10313 C59.7360356,16.3440665 60.0783956,15.5018581 60.7814909,14.8914772 C61.711859,14.1167629 62.8211441,13.9832421 63.7026727,13.9832421 L67.0653442,13.9832421 L66.0198889,14.5799286 L65.0063486,14.5799286 Z M63.8501583,21.9069454 C63.7162123,21.8893383 63.6359415,21.8893383 63.4744327,21.8893383 C63.3264635,21.8893383 62.4449349,21.9216181 61.7621492,22.1534454 C61.4009304,22.2869663 60.3569258,22.6816597 60.3569258,23.854002 C60.3569258,25.0238988 61.4841026,25.8675744 63.2278174,25.8675744 C64.7945496,25.8675744 65.6262716,25.1080218 65.6262716,24.0853403 C65.6262716,23.243621 65.0880701,22.7995298 63.8501583,21.9069454 L63.8501583,21.9069454 Z M64.3192108,18.7709177 C64.0609901,19.0320903 63.6209512,19.2331052 63.21186,19.2331052 C61.8100215,19.2331052 61.1726904,17.400006 61.1726904,16.2946687 C61.1726904,15.8657391 61.255379,15.4196915 61.5314914,15.0758631 C61.7916463,14.7437728 62.2500605,14.5290635 62.6731749,14.5290635 C64.0295588,14.5290635 64.7292691,16.3778135 64.7292691,17.5648284 C64.7292691,17.8636607 64.6963871,18.3899187 64.3192108,18.7709177 Z M54.8893206,21.6731617 C52.2955085,21.6731617 50.9076932,19.630244 50.9076932,17.7805159 C50.9076932,15.6192391 52.6523752,13.77 55.1340016,13.77 C57.5329394,13.77 59.0353582,15.6696151 59.0353582,17.6641131 C59.0353582,19.6121478 57.5503475,21.6731617 54.8893206,21.6731617 Z M56.9299409,20.3379534 C56.5542153,20.8651895 55.902861,21.1777163 55.2645627,21.1777163 C53.2868051,21.1777163 52.4898993,18.4882252 52.4898993,16.8576081 C52.4898993,16.145497 52.6035358,15.4196915 53.2408669,14.8420794 C53.6315829,14.4948274 54.1736528,14.2820744 54.7118544,14.2820744 C56.7355501,14.2820744 57.4202701,17.0542212 57.4202701,18.5077887 C57.4202701,19.1504494 57.3245253,19.8097391 56.9299409,20.3379534 Z M46.2050789,21.6731617 C43.6107832,21.6731617 42.2253858,19.630244 42.2253858,17.7805159 C42.2253858,15.6192391 43.9705513,13.77 46.4512106,13.77 C48.8486977,13.77 50.3496658,15.6696151 50.3496658,17.6641131 C50.3496658,19.6121478 48.8665894,21.6731617 46.2050789,21.6731617 Z M48.2461828,20.3379534 C47.8694901,20.8651895 47.2191028,21.1777163 46.5822552,21.1777163 C44.6078825,21.1777163 43.8075918,18.4882252 43.8075918,16.8576081 C43.8075918,16.145497 43.9207447,15.4196915 44.559043,14.8420794 C44.950726,14.4948274 45.4869933,14.2820744 46.0271291,14.2820744 C48.0488906,14.2820744 48.7355448,17.0542212 48.7355448,18.5077887 C48.7355448,19.1504494 48.6378658,19.8097391 48.2461828,20.3379534 Z M41.188151,21.1004405 L39.0005287,21.6071349 C38.1141645,21.7484812 37.3182258,21.8727093 36.475382,21.8727093 C32.2558434,21.8727093 30.6480087,18.7313016 30.6480087,16.2726597 C30.6480087,13.2701528 32.9260566,10.4862679 36.8274131,10.4862679 C37.6528489,10.4862679 38.4468533,10.6090288 39.170258,10.8085764 C40.3167771,11.1343085 40.8530444,11.5358492 41.188151,11.7711002 L39.9173572,12.9918621 L39.3815734,13.1131558 L39.7635853,12.4973948 C39.2461768,11.9862986 38.2950157,11.0428492 36.4898887,11.0428492 C34.0764442,11.0428492 32.2558434,12.8984464 32.2558434,15.607501 C32.2558434,18.5170813 34.3346649,21.2540139 37.6688063,21.2540139 C38.6484975,21.2540139 39.1528499,21.0549554 39.6107805,20.8691022 L39.6107805,18.3747569 L37.3008177,18.5004524 L38.5251899,17.8352937 L41.7669715,17.8352937 L41.3704529,18.2211835 C41.2635863,18.3131319 41.2490795,18.3444335 41.2190988,18.4676835 C41.2031414,18.6085407 41.188151,19.0565446 41.188151,19.2140308 L41.188151,21.1004405 Z M82.1905959,20.4220764 L82.1905959,24.6257817 L81.3651602,24.6257817 L81.3651602,13.9289534 L82.1905959,13.9289534 L82.1905959,15.1472698 C82.7283139,14.3598393 83.7109064,13.7357639 84.8521064,13.7357639 C86.899013,13.7357639 88.2776406,15.3062232 88.2776406,17.792254 C88.2776406,20.2616558 86.899013,21.8648839 84.8521064,21.8648839 C83.7747362,21.8648839 82.8095519,21.3029226 82.1905959,20.4220764 Z M87.3907928,17.792254 C87.3907928,19.6688819 86.4251248,21.1102222 84.7128413,21.1102222 C83.6494944,21.1102222 82.6325691,20.2342669 82.1905959,19.495745 L82.1905959,16.0716448 C82.6325691,15.3345903 83.6494944,14.4894474 84.7128413,14.4894474 C86.4251248,14.4894474 87.3907928,15.9185605 87.3907928,17.792254 Z M89.4048173,10.9753552 L90.2297695,10.9753552 L90.2297695,21.6721835 L89.4048173,21.6721835 L89.4048173,10.9753552 Z M99.4918646,23.9342123 C99.6683638,24.0139335 99.9696212,24.0628423 100.160627,24.0628423 C100.665463,24.0628423 101.017011,23.854002 101.332775,23.1164583 L101.934806,21.7367431 L98.6833535,13.9289534 L99.6040504,13.9289534 L102.393221,20.6949871 L105.155311,13.9289534 L106.089064,13.9289534 L102.123394,23.3751855 C101.711885,24.3484692 101.0644,24.8165258 100.175134,24.8165258 C99.9082092,24.8165258 99.556178,24.7685952 99.3501818,24.7045248 L99.4918646,23.9342123 Z M97.0808379,21.6491964 C97.0257121,21.3806875 96.984126,21.1439692 96.9536618,20.946378 C96.9285167,20.7492758 96.9140099,20.5477718 96.9140099,20.3428442 C96.6311277,20.7629702 96.2302571,21.1126677 95.7181677,21.3880238 C95.2055949,21.6653363 94.7186506,21.8013026 94.0508552,21.8013026 C93.2466961,21.8013026 92.622421,21.6012659 92.1770629,21.1953234 C91.7331554,20.78987 91.509751,20.240625 91.509751,19.5456319 C91.509751,18.8516171 91.8332522,18.2881885 92.4783203,17.8573026 C93.1233885,17.4244603 93.9570447,17.2092619 94.9889603,17.2092619 L96.9140099,17.2092619 L96.9140099,16.2472272 C96.9140099,15.6930913 96.727356,15.2573145 96.3545318,14.9413641 C95.9802569,14.6249246 95.4551115,14.4649931 94.77426,14.4649931 C94.1519191,14.4649931 93.6470832,14.6112302 93.2626535,14.895879 C92.8816088,15.1863968 92.6896358,15.5463651 92.6896358,15.9801855 L91.8448576,15.9801855 L91.8274495,15.9386131 C91.7969853,15.3536647 92.0614922,14.8406121 92.6238717,14.397499 C93.1838334,13.954875 93.9173929,13.7323403 94.8201981,13.7323403 C95.720102,13.7323403 96.4483423,13.9514514 96.9971821,14.3886954 C97.5455384,14.8215377 97.8206836,15.4470804 97.8206836,16.2648343 L97.8206836,20.0846062 C97.8206836,20.3589841 97.8337397,20.6240694 97.8675889,20.8823075 C97.9024052,21.1410347 97.9580145,21.3992728 98.0319991,21.6491964 L97.0808379,21.6491964 Z M94.1519191,21.0407718 C94.8530801,21.0407718 95.3569489,20.8823075 95.8719396,20.5688026 C96.3835454,20.257254 96.7317081,19.8508224 96.9140099,19.3588006 L96.9140099,17.8719752 L94.9797727,17.8719752 C94.240894,17.8719752 93.6291915,18.0372867 93.14805,18.3708442 C92.6659414,18.7034236 92.4217439,19.1059425 92.4217439,19.573999 C92.4217439,20.0156448 92.5764829,20.3687659 92.8840266,20.6362966 C93.1925374,20.9067619 93.6142012,21.0407718 94.1519191,21.0407718 L94.1519191,21.0407718 Z" id="Fill-1" fill="#4F5A6C"></path>
        <path d="M10.6420649,24.5922508 C10.3764055,24.5207175 10.2034884,24.2570551 10.2034884,23.8490494 L10.2034884,10.3813832 C10.2034884,10.0035078 10.3498998,9.74865833 10.5819902,9.656 L10.5819902,9.656 L17.2025421,17.1613391 L10.6420649,24.5922508 L10.6420649,24.5922508 Z M11.5534314,24.3063754 L19.5224865,19.7913267 L17.5815099,17.590953 L11.5534314,24.3063754 L11.5534314,24.3063754 Z M19.5773621,14.4714314 L11.7193644,10.0182699 L17.5930001,16.7190756 L19.5773621,14.4714314 L19.5773621,14.4714314 Z M20.1105209,14.7735747 L23.1888517,16.5180782 C23.7716968,16.848379 23.7770269,17.3808204 23.1888517,17.7140644 L20.0326421,19.5022865 L17.9739907,17.1537201 L20.1105209,14.7735747 L20.1105209,14.7735747 Z" id="google-play" fill="#4F5A6C"></path>
    </g>
</svg>