
<svg width="1379px" height="202px" viewBox="-1 -19 1379 202" version="1.1" xmlns="http://www.w3.org/2000/svg" xmlns:xlink="http://www.w3.org/1999/xlink">
    <!-- Generator: Sketch 42 (36781) - http://www.bohemiancoding.com/sketch -->
    <desc>Created with Sketch.</desc>
    <defs></defs>
    <g id="Group-2" stroke="none" stroke-width="1" fill="none" fill-rule="evenodd" transform="translate(0.000000, -18.000000)" opacity="0.1">
        <path d="M274.852379,71.5521119 C279.024973,71.5521119 282.368076,68.1773509 282.368076,63.9966768 L282.393212,48.8858066 C282.393212,44.7051326 279.024973,41.3303716 274.852379,41.3303716 C270.679784,41.3303716 267.311545,44.7051326 267.311545,48.8858066 L267.311545,63.9966768 C267.311545,68.1773509 270.679784,71.5521119 274.852379,71.5521119 L274.852379,71.5521119 Z M288.174518,63.9966768 C288.174518,71.5521119 281.789946,76.8409164 274.852379,76.8409164 C267.914812,76.8409164 261.530239,71.5521119 261.530239,63.9966768 L257.2571,63.9966768 C257.2571,72.584688 264.094122,79.686797 272.338767,80.9208514 L272.338767,89.1814604 L277.36599,89.1814604 L277.36599,80.9208514 C285.610635,79.7119818 292.447657,72.6098728 292.447657,63.9966768 L288.174518,63.9966768 L288.174518,63.9966768 Z" id="Shape" fill="#FFFFFF" transform="translate(274.852379, 65.255916) rotate(20.000000) translate(-274.852379, -65.255916) "></path>
        <path d="M1353.09964,51.0198538 C1357.27223,51.0198538 1360.61534,47.6450928 1360.61534,43.4644187 L1360.64047,28.3535486 C1360.64047,24.1728745 1357.27223,20.7981135 1353.09964,20.7981135 C1348.92705,20.7981135 1345.55881,24.1728745 1345.55881,28.3535486 L1345.55881,43.4644187 C1345.55881,47.6450928 1348.92705,51.0198538 1353.09964,51.0198538 L1353.09964,51.0198538 Z M1366.42178,43.4644187 C1366.42178,51.0198538 1360.03721,56.3086584 1353.09964,56.3086584 C1346.16207,56.3086584 1339.7775,51.0198538 1339.7775,43.4644187 L1335.50436,43.4644187 C1335.50436,52.0524299 1342.34138,59.1545389 1350.58603,60.3885933 L1350.58603,68.6492023 L1355.61325,68.6492023 L1355.61325,60.3885933 C1363.8579,59.1797237 1370.69492,52.0776147 1370.69492,43.4644187 L1366.42178,43.4644187 L1366.42178,43.4644187 Z" id="Shape" fill="#FFFFFF" transform="translate(1353.099640, 44.723658) rotate(20.000000) translate(-1353.099640, -44.723658) "></path>
        <path d="M602.495539,178.187728 C606.668134,178.187728 610.011237,174.812967 610.011237,170.632293 L610.036373,155.521423 C610.036373,151.340749 606.668134,147.965988 602.495539,147.965988 C598.322945,147.965988 594.954706,151.340749 594.954706,155.521423 L594.954706,170.632293 C594.954706,174.812967 598.322945,178.187728 602.495539,178.187728 L602.495539,178.187728 Z M615.817679,170.632293 C615.817679,178.187728 609.433106,183.476533 602.495539,183.476533 C595.557972,183.476533 589.1734,178.187728 589.1734,170.632293 L584.900261,170.632293 C584.900261,179.220304 591.737283,186.322413 599.981928,187.556467 L599.981928,195.817077 L605.009151,195.817077 L605.009151,187.556467 C613.253796,186.347598 620.090818,179.245489 620.090818,170.632293 L615.817679,170.632293 L615.817679,170.632293 Z" id="Shape" fill="#FFFFFF" transform="translate(602.495539, 171.891532) rotate(-7.000000) translate(-602.495539, -171.891532) "></path>
        <path d="M360,138.741478 L360,153.03071 L369.507745,153.03071 L381.392426,164.938404 L381.392426,126.833785 L369.507745,138.741478 L360,138.741478 L360,138.741478 Z M392.088639,145.886094 C392.088639,141.670771 389.664164,138.050832 386.146298,136.288493 L386.146298,155.45988 C389.664164,153.721356 392.088639,150.101418 392.088639,145.886094 L392.088639,145.886094 Z M386.146298,125 L386.146298,129.90597 C393.015644,131.954093 398.030979,138.336617 398.030979,145.886094 C398.030979,153.435572 393.015644,159.818095 386.146298,161.866219 L386.146298,166.772188 C395.677812,164.604988 402.784852,156.07908 402.784852,145.886094 C402.784852,135.693109 395.677812,127.1672 386.146298,125 L386.146298,125 Z" id="Shape" fill="#FFFFFF"></path>
        <path d="M1103.7599,29.5883542 L1103.7599,48.8594757 L1116.58248,48.8594757 L1132.61072,64.9187436 L1132.61072,13.5290864 L1116.58248,29.5883542 L1103.7599,29.5883542 L1103.7599,29.5883542 Z M1147.03612,39.223915 C1147.03612,33.5389341 1143.76637,28.6569167 1139.02201,26.2801451 L1139.02201,52.1355663 C1143.76637,49.7909132 1147.03612,44.9088958 1147.03612,39.223915 L1147.03612,39.223915 Z M1139.02201,11.0559591 L1139.02201,17.6723775 C1148.28633,20.4345716 1155.05024,29.0423391 1155.05024,39.223915 C1155.05024,49.4054908 1148.28633,58.0132584 1139.02201,60.7754524 L1139.02201,67.3918708 C1151.87665,64.4690841 1161.46153,52.9706483 1161.46153,39.223915 C1161.46153,25.4771817 1151.87665,13.9787459 1139.02201,11.0559591 L1139.02201,11.0559591 Z" id="Shape" fill="#FFFFFF" transform="translate(1132.610716, 39.223915) rotate(24.000000) translate(-1132.610716, -39.223915) "></path>
        <path d="M930.67679,146.566569 L930.67679,160.855801 L940.184535,160.855801 L952.069216,172.763494 L952.069216,134.658876 L940.184535,146.566569 L930.67679,146.566569 L930.67679,146.566569 Z M962.765428,153.711185 C962.765428,149.495862 960.340954,145.875923 956.823088,144.113584 L956.823088,163.28497 C960.340954,161.546447 962.765428,157.926508 962.765428,153.711185 L962.765428,153.711185 Z M956.823088,132.825091 L956.823088,137.73106 C963.692434,139.779184 968.707769,146.161707 968.707769,153.711185 C968.707769,161.260663 963.692434,167.643186 956.823088,169.69131 L956.823088,174.597279 C966.354602,172.430079 973.461641,163.904171 973.461641,153.711185 C973.461641,143.518199 966.354602,134.992291 956.823088,132.825091 L956.823088,132.825091 Z" id="Shape" fill="#FFFFFF" transform="translate(952.069216, 153.711185) rotate(15.000000) translate(-952.069216, -153.711185) "></path>
        <path d="M64.0707939,170.886504 C68.1655752,170.886504 71.4463338,167.574677 71.4463338,163.471967 C71.4463338,159.369257 68.1655752,156.057431 64.0707939,156.057431 C59.9760125,156.057431 56.6705866,159.369257 56.6705866,163.471967 C56.6705866,167.574677 59.9760125,170.886504 64.0707939,170.886504 L64.0707939,170.886504 Z M44.3369078,170.886504 C48.4316892,170.886504 51.7124477,167.574677 51.7124477,163.471967 C51.7124477,159.369257 48.4316892,156.057431 44.3369078,156.057431 C40.2421265,156.057431 36.9367005,159.369257 36.9367005,163.471967 C36.9367005,167.574677 40.2421265,170.886504 44.3369078,170.886504 L44.3369078,170.886504 Z M44.3369078,175.829528 C38.5894135,175.829528 27.0697575,178.721197 27.0697575,184.47982 L27.0697575,190.6586 L61.6040581,190.6586 L61.6040581,184.47982 C61.6040581,178.721197 50.0844021,175.829528 44.3369078,175.829528 L44.3369078,175.829528 Z M64.0707939,175.829528 C63.3554405,175.829528 62.5414177,175.878958 61.6780602,175.953103 C64.5394736,178.029174 66.5375296,180.821982 66.5375296,184.47982 L66.5375296,190.6586 L81.3379441,190.6586 L81.3379441,184.47982 C81.3379441,178.721197 69.8182882,175.829528 64.0707939,175.829528 L64.0707939,175.829528 Z" id="Shape" fill="#FFFFFF" transform="translate(54.203851, 173.358016) rotate(26.000000) translate(-54.203851, -173.358016) "></path>
        <path d="M1159.68528,161.160697 C1163.78006,161.160697 1167.06082,157.848871 1167.06082,153.746161 C1167.06082,149.643451 1163.78006,146.331624 1159.68528,146.331624 C1155.5905,146.331624 1152.28507,149.643451 1152.28507,153.746161 C1152.28507,157.848871 1155.5905,161.160697 1159.68528,161.160697 L1159.68528,161.160697 Z M1139.95139,161.160697 C1144.04617,161.160697 1147.32693,157.848871 1147.32693,153.746161 C1147.32693,149.643451 1144.04617,146.331624 1139.95139,146.331624 C1135.85661,146.331624 1132.55118,149.643451 1132.55118,153.746161 C1132.55118,157.848871 1135.85661,161.160697 1139.95139,161.160697 L1139.95139,161.160697 Z M1139.95139,166.103721 C1134.2039,166.103721 1122.68424,168.99539 1122.68424,174.754014 L1122.68424,180.932794 L1157.21854,180.932794 L1157.21854,174.754014 C1157.21854,168.99539 1145.69889,166.103721 1139.95139,166.103721 L1139.95139,166.103721 Z M1159.68528,166.103721 C1158.96992,166.103721 1158.1559,166.153152 1157.29254,166.227297 C1160.15396,168.303367 1162.15201,171.096176 1162.15201,174.754014 L1162.15201,180.932794 L1176.95243,180.932794 L1176.95243,174.754014 C1176.95243,168.99539 1165.43277,166.103721 1159.68528,166.103721 L1159.68528,166.103721 Z" id="Shape" fill="#FFFFFF" transform="translate(1149.818334, 163.632209) rotate(26.000000) translate(-1149.818334, -163.632209) "></path>
        <path d="M803.456927,174.00636 C807.551709,174.00636 810.832467,170.694534 810.832467,166.591824 C810.832467,162.489114 807.551709,159.177288 803.456927,159.177288 C799.362146,159.177288 796.05672,162.489114 796.05672,166.591824 C796.05672,170.694534 799.362146,174.00636 803.456927,174.00636 L803.456927,174.00636 Z M783.723041,174.00636 C787.817823,174.00636 791.098581,170.694534 791.098581,166.591824 C791.098581,162.489114 787.817823,159.177288 783.723041,159.177288 C779.62826,159.177288 776.322834,162.489114 776.322834,166.591824 C776.322834,170.694534 779.62826,174.00636 783.723041,174.00636 L783.723041,174.00636 Z M783.723041,178.949385 C777.975547,178.949385 766.455891,181.841054 766.455891,187.599677 L766.455891,193.778457 L800.990192,193.778457 L800.990192,187.599677 C800.990192,181.841054 789.470536,178.949385 783.723041,178.949385 L783.723041,178.949385 Z M803.456927,178.949385 C802.741574,178.949385 801.927551,178.998815 801.064194,179.07296 C803.925607,181.14903 805.923663,183.941839 805.923663,187.599677 L805.923663,193.778457 L820.724078,193.778457 L820.724078,187.599677 C820.724078,181.841054 809.204422,178.949385 803.456927,178.949385 L803.456927,178.949385 Z" id="Shape" fill="#FFFFFF" transform="translate(793.589984, 176.477873) rotate(-17.000000) translate(-793.589984, -176.477873) "></path>
        <path d="M191.011231,127.516129 C177.020193,127.516129 165.690494,138.893161 165.690494,152.91129 C165.690494,166.929419 177.020193,178.306452 191.011231,178.306452 C205.027615,178.306452 216.382661,166.929419 216.382661,152.91129 C216.382661,138.893161 205.027615,127.516129 191.011231,127.516129 L191.011231,127.516129 Z M208.576067,142.753226 L201.098972,142.753226 C200.287898,139.578831 199.121978,136.531411 197.601213,133.712548 C202.264892,135.312444 206.142843,138.563024 208.576067,142.753226 L208.576067,142.753226 Z M191.036577,132.696742 C193.140302,135.744161 194.787798,139.121718 195.877679,142.753226 L186.195475,142.753226 C187.285357,139.121718 188.932852,135.744161 191.036577,132.696742 L191.036577,132.696742 Z M171.418709,157.990323 C171.013171,156.365032 170.75971,154.663556 170.75971,152.91129 C170.75971,151.159024 171.013171,149.457548 171.418709,147.832258 L179.985685,147.832258 C179.782916,149.508339 179.63084,151.184419 179.63084,152.91129 C179.63084,154.638161 179.782916,156.314242 179.985685,157.990323 L171.418709,157.990323 L171.418709,157.990323 Z M173.497087,163.069355 L180.974182,163.069355 C181.785257,166.24375 182.951177,169.291169 184.471942,172.110032 C179.808262,170.510137 175.930311,167.284952 173.497087,163.069355 L173.497087,163.069355 Z M180.974182,142.753226 L173.497087,142.753226 C175.930311,138.537629 179.808262,135.312444 184.471942,133.712548 C182.951177,136.531411 181.785257,139.578831 180.974182,142.753226 L180.974182,142.753226 Z M191.036577,173.125839 C188.932852,170.078419 187.285357,166.700863 186.195475,163.069355 L195.877679,163.069355 C194.787798,166.700863 193.140302,170.078419 191.036577,173.125839 L191.036577,173.125839 Z M196.967561,157.990323 L185.105594,157.990323 C184.877479,156.314242 184.700056,154.638161 184.700056,152.91129 C184.700056,151.184419 184.877479,149.482944 185.105594,147.832258 L196.967561,147.832258 C197.195675,149.482944 197.373098,151.184419 197.373098,152.91129 C197.373098,154.638161 197.195675,156.314242 196.967561,157.990323 L196.967561,157.990323 Z M197.601213,172.110032 C199.121978,169.291169 200.287898,166.24375 201.098972,163.069355 L208.576067,163.069355 C206.142843,167.259556 202.264892,170.510137 197.601213,172.110032 L197.601213,172.110032 Z M202.08747,157.990323 C202.290238,156.314242 202.442315,154.638161 202.442315,152.91129 C202.442315,151.184419 202.290238,149.508339 202.08747,147.832258 L210.654446,147.832258 C211.059983,149.457548 211.313444,151.159024 211.313444,152.91129 C211.313444,154.663556 211.059983,156.365032 210.654446,157.990323 L202.08747,157.990323 L202.08747,157.990323 Z" id="Shape" fill="#FFFFFF"></path>
        <path d="M1303.04374,132.919355 C1289.0527,132.919355 1277.723,144.296387 1277.723,158.314516 C1277.723,172.332645 1289.0527,183.709677 1303.04374,183.709677 C1317.06013,183.709677 1328.41517,172.332645 1328.41517,158.314516 C1328.41517,144.296387 1317.06013,132.919355 1303.04374,132.919355 L1303.04374,132.919355 Z M1320.60858,148.156452 L1313.13148,148.156452 C1312.32041,144.982056 1311.15449,141.934637 1309.63372,139.115774 C1314.2974,140.715669 1318.17535,143.96625 1320.60858,148.156452 L1320.60858,148.156452 Z M1303.06909,138.099968 C1305.17281,141.147387 1306.82031,144.524944 1307.91019,148.156452 L1298.22799,148.156452 C1299.31787,144.524944 1300.96536,141.147387 1303.06909,138.099968 L1303.06909,138.099968 Z M1283.45122,163.393548 C1283.04568,161.768258 1282.79222,160.066782 1282.79222,158.314516 C1282.79222,156.56225 1283.04568,154.860774 1283.45122,153.235484 L1292.0182,153.235484 C1291.81543,154.911565 1291.66335,156.587645 1291.66335,158.314516 C1291.66335,160.041387 1291.81543,161.717468 1292.0182,163.393548 L1283.45122,163.393548 L1283.45122,163.393548 Z M1285.5296,168.472581 L1293.00669,168.472581 C1293.81777,171.646976 1294.98369,174.694395 1296.50445,177.513258 C1291.84077,175.913363 1287.96282,172.688177 1285.5296,168.472581 L1285.5296,168.472581 Z M1293.00669,148.156452 L1285.5296,148.156452 C1287.96282,143.940855 1291.84077,140.715669 1296.50445,139.115774 C1294.98369,141.934637 1293.81777,144.982056 1293.00669,148.156452 L1293.00669,148.156452 Z M1303.06909,178.529065 C1300.96536,175.481645 1299.31787,172.104089 1298.22799,168.472581 L1307.91019,168.472581 C1306.82031,172.104089 1305.17281,175.481645 1303.06909,178.529065 L1303.06909,178.529065 Z M1309.00007,163.393548 L1297.1381,163.393548 C1296.90999,161.717468 1296.73257,160.041387 1296.73257,158.314516 C1296.73257,156.587645 1296.90999,154.886169 1297.1381,153.235484 L1309.00007,153.235484 C1309.22819,154.886169 1309.40561,156.587645 1309.40561,158.314516 C1309.40561,160.041387 1309.22819,161.717468 1309.00007,163.393548 L1309.00007,163.393548 Z M1309.63372,177.513258 C1311.15449,174.694395 1312.32041,171.646976 1313.13148,168.472581 L1320.60858,168.472581 C1318.17535,172.662782 1314.2974,175.913363 1309.63372,177.513258 L1309.63372,177.513258 Z M1314.11998,163.393548 C1314.32275,161.717468 1314.47483,160.041387 1314.47483,158.314516 C1314.47483,156.587645 1314.32275,154.911565 1314.11998,153.235484 L1322.68696,153.235484 C1323.09249,154.860774 1323.34596,156.56225 1323.34596,158.314516 C1323.34596,160.066782 1323.09249,161.768258 1322.68696,163.393548 L1314.11998,163.393548 L1314.11998,163.393548 Z" id="Shape" fill="#FFFFFF"></path>
        <path d="M818.910722,8.64516129 C804.919684,8.64516129 793.589984,20.0221935 793.589984,34.0403226 C793.589984,48.0584516 804.919684,59.4354839 818.910722,59.4354839 C832.927106,59.4354839 844.282151,48.0584516 844.282151,34.0403226 C844.282151,20.0221935 832.927106,8.64516129 818.910722,8.64516129 L818.910722,8.64516129 Z M836.475558,23.8822581 L828.998463,23.8822581 C828.187388,20.7078629 827.021469,17.6604435 825.500704,14.8415806 C830.164383,16.4414758 834.042334,19.6920565 836.475558,23.8822581 L836.475558,23.8822581 Z M818.936068,13.8257742 C821.039793,16.8731935 822.687288,20.25075 823.77717,23.8822581 L814.094966,23.8822581 C815.184848,20.25075 816.832343,16.8731935 818.936068,13.8257742 L818.936068,13.8257742 Z M799.318199,39.1193548 C798.912662,37.4940645 798.659201,35.7925887 798.659201,34.0403226 C798.659201,32.2880565 798.912662,30.5865806 799.318199,28.9612903 L807.885175,28.9612903 C807.682407,30.637371 807.53033,32.3134516 807.53033,34.0403226 C807.53033,35.7671935 807.682407,37.4432742 807.885175,39.1193548 L799.318199,39.1193548 L799.318199,39.1193548 Z M801.396578,44.1983871 L808.873673,44.1983871 C809.684747,47.3727823 810.850667,50.4202016 812.371432,53.2390645 C807.707753,51.6391694 803.829802,48.4139839 801.396578,44.1983871 L801.396578,44.1983871 Z M808.873673,23.8822581 L801.396578,23.8822581 C803.829802,19.6666613 807.707753,16.4414758 812.371432,14.8415806 C810.850667,17.6604435 809.684747,20.7078629 808.873673,23.8822581 L808.873673,23.8822581 Z M818.936068,54.254871 C816.832343,51.2074516 815.184848,47.8298952 814.094966,44.1983871 L823.77717,44.1983871 C822.687288,47.8298952 821.039793,51.2074516 818.936068,54.254871 L818.936068,54.254871 Z M824.867051,39.1193548 L813.005084,39.1193548 C812.77697,37.4432742 812.599547,35.7671935 812.599547,34.0403226 C812.599547,32.3134516 812.77697,30.6119758 813.005084,28.9612903 L824.867051,28.9612903 C825.095166,30.6119758 825.272589,32.3134516 825.272589,34.0403226 C825.272589,35.7671935 825.095166,37.4432742 824.867051,39.1193548 L824.867051,39.1193548 Z M825.500704,53.2390645 C827.021469,50.4202016 828.187388,47.3727823 828.998463,44.1983871 L836.475558,44.1983871 C834.042334,48.3885887 830.164383,51.6391694 825.500704,53.2390645 L825.500704,53.2390645 Z M829.98696,39.1193548 C830.189729,37.4432742 830.341805,35.7671935 830.341805,34.0403226 C830.341805,32.3134516 830.189729,30.637371 829.98696,28.9612903 L838.553937,28.9612903 C838.959474,30.5865806 839.212935,32.2880565 839.212935,34.0403226 C839.212935,35.7925887 838.959474,37.4940645 838.553937,39.1193548 L829.98696,39.1193548 L829.98696,39.1193548 Z" id="Shape" fill="#FFFFFF"></path>
        <path d="M44.5719716,84.7045891 C44.1184932,85.7820646 42.8025905,86.9230499 40.6236362,88.1284835 C38.5949005,89.2262947 36.5874903,89.7753567 34.6026599,89.7753567 C34.0202882,89.7753567 33.453597,89.7371883 32.9032135,89.6630415 C32.35283,89.5870175 31.7328253,89.4524895 31.0413177,89.2585189 C30.3513783,89.0645482 29.8386278,88.9081203 29.5040071,88.7895479 C29.1700137,88.6712884 28.5707072,88.450725 27.7076556,88.1278578 C26.8446041,87.8037391 26.3164868,87.6100814 26.1220493,87.5462588 C24.0070712,86.7922762 22.1185187,85.8990727 20.4567054,84.8657098 C17.6944386,83.1650254 14.8405981,80.8448865 11.8948701,77.9068572 C8.94914219,74.9678893 6.62373255,72.1202753 4.91958205,69.364641 C3.88373202,67.7068178 2.98806514,65.8231128 2.23289502,63.7135258 C2.1682916,63.5195551 1.97385411,62.992393 1.65020978,62.1311009 C1.32687905,61.2698087 1.1054712,60.6725669 0.986927056,60.3390626 C0.868696519,60.0058711 0.712205702,59.4940389 0.517768214,58.8054432 C0.323330726,58.1162217 0.18847892,57.49708 0.112899187,56.9483308 C0.0376330622,56.398956 -3.55271368e-15,55.8336254 -3.55271368e-15,55.252965 C-3.55271368e-15,53.2725874 0.550069926,51.2699971 1.65052339,49.2464455 C2.85948551,47.0724102 4.00290338,45.7593542 5.08203144,45.3075903 C5.62143866,45.0704456 6.36030112,44.8445637 7.29924602,44.6293189 C8.23819092,44.4137612 8.99837878,44.3064516 9.58169124,44.3064516 C9.88338296,44.3064516 10.1101222,44.3389886 10.2612816,44.4034369 C10.649843,44.5323335 11.2215519,45.3504516 11.9764084,46.8574782 C12.2141239,47.2663808 12.5374547,47.8479798 12.947655,48.600711 C13.3578554,49.3543808 13.7351269,50.0382837 14.0807238,50.651794 C14.4263208,51.2653043 14.7606278,51.8409591 15.0839585,52.3787583 C15.148562,52.4654194 15.3376681,52.7341625 15.6506497,53.1862392 C15.9636314,53.6386288 16.1960155,54.0203129 16.3468614,54.3331688 C16.4973936,54.6453989 16.573287,54.9523105 16.573287,55.2535907 C16.573287,55.6840803 16.2656367,56.2218796 15.6506497,56.8679269 C15.0356628,57.5133485 14.3670487,58.1055846 13.6438667,58.6436967 C12.9209983,59.1814959 12.251757,59.752145 11.63677,60.3547053 C11.0220967,60.9575786 10.7141328,61.4528294 10.7141328,61.8401449 C10.7141328,62.0341156 10.7680735,62.276266 10.8762686,62.5669091 C10.9838364,62.8572393 11.0754102,63.0781155 11.1509899,63.2285992 C11.2265697,63.3797086 11.3774155,63.6378146 11.6041547,64.003856 C11.8308939,64.3695845 11.955083,64.5745051 11.976722,64.6173663 C13.6165827,67.5672841 15.4944725,70.096098 17.6088234,72.2066235 C19.7241151,74.3155848 22.2599563,76.1886528 25.2160333,77.8252018 C25.2589977,77.8467888 25.4634707,77.9706797 25.8313339,78.1968745 C26.1985698,78.423695 26.4569835,78.5738658 26.6075158,78.6495769 C26.7596161,78.7240366 26.9807103,78.8163291 27.2714257,78.9236387 C27.5627684,79.0309482 27.8058152,79.0847594 28.0002527,79.0847594 C28.3885005,79.0847594 28.8849433,78.7781607 29.4895811,78.1643375 C30.0935918,77.5508272 30.6653007,76.8838185 31.2043943,76.1623729 C31.7441152,75.4406145 32.3374631,74.7736058 32.9847518,74.1597826 C33.6317268,73.5465852 34.1708205,73.2393607 34.6023462,73.2393607 C34.9043516,73.2393607 35.2123155,73.3150718 35.5249835,73.4652426 C35.8385923,73.616352 36.2211951,73.8478653 36.6746735,74.1597826 C37.1278383,74.4726385 37.3975419,74.6606648 37.4837844,74.725426 C38.022878,75.0476675 38.5999183,75.3814847 39.2155324,75.7256262 C39.8305194,76.0703933 40.5160684,76.4473846 41.2715521,76.8562872 C42.026095,77.2655027 42.6090938,77.588057 43.0183534,77.8255146 C44.5293208,78.577933 45.3497216,79.1492077 45.4786148,79.5365233 C45.5438455,79.6885712 45.5761472,79.9141403 45.57552,80.2166719 C45.57552,80.7979581 45.4679521,81.5566335 45.251562,82.4930111 C45.0357991,83.4300143 44.8100008,84.1671027 44.5719716,84.7045891 Z" id="Fill-19" fill="#FFFFFF"></path>
        <path d="M1049.72439,95.3489991 C1049.24901,96.4785069 1047.86957,97.6745914 1045.58539,98.9382365 C1043.45868,100.089062 1041.35433,100.664639 1039.27365,100.664639 C1038.66316,100.664639 1038.0691,100.624627 1037.49214,100.5469 C1036.91518,100.467204 1036.26523,100.32618 1035.54033,100.122842 C1034.81707,99.9195046 1034.27956,99.7555226 1033.92878,99.6312243 C1033.57866,99.5072539 1032.95041,99.2760393 1032.04568,98.9375805 C1031.14095,98.5978099 1030.58733,98.3948002 1030.38351,98.3278956 C1028.16639,97.5375025 1026.18664,96.6011655 1024.44458,95.5179006 C1021.54892,93.7350886 1018.55726,91.3029081 1015.46928,88.2229987 C1012.3813,85.1421055 1009.9436,82.1569778 1008.15715,79.2682714 C1007.07128,77.5303905 1006.13236,75.5557197 1005.34072,73.3442589 C1005.273,73.1409212 1005.06917,72.588302 1004.7299,71.6854173 C1004.39096,70.7825326 1004.15886,70.1564494 1004.03459,69.8068399 C1003.91065,69.4575583 1003.7466,68.9210093 1003.54277,68.1991606 C1003.33894,67.4766561 1003.19758,66.8276155 1003.11835,66.2523667 C1003.03945,65.676462 1003,65.0838312 1003,64.4751302 C1003,62.3991184 1003.57663,60.2998213 1004.73023,58.1785505 C1005.99757,55.8995292 1007.19621,54.5230645 1008.32745,54.0494846 C1008.8929,53.8008879 1009.66745,53.564098 1010.65173,53.3384588 C1011.63602,53.1124916 1012.43292,53 1013.0444,53 C1013.36066,53 1013.59835,53.0341082 1013.75681,53.1016688 C1014.16413,53.23679 1014.76345,54.0944157 1015.55476,55.6742179 C1015.80395,56.1028668 1016.1429,56.7125518 1016.57291,57.501633 C1017.00292,58.2916981 1017.39841,59.0086273 1017.76069,59.6517645 C1018.12298,60.2949018 1018.47343,60.8983555 1018.81238,61.4621255 C1018.8801,61.5529715 1019.07834,61.8346925 1019.40643,62.3086004 C1019.73453,62.7828362 1019.97814,63.1829522 1020.13627,63.5109162 C1020.29407,63.8382242 1020.37363,64.1599568 1020.37363,64.4757861 C1020.37363,64.9270645 1020.05112,65.4908345 1019.40643,66.16808 C1018.76175,66.8446696 1018.06085,67.4655053 1017.30274,68.0296033 C1016.54496,68.5933733 1015.84341,69.1915795 1015.19872,69.8232381 C1014.55436,70.4552246 1014.23153,70.9743915 1014.23153,71.3804108 C1014.23153,71.5837485 1014.28807,71.8375925 1014.40149,72.142271 C1014.51426,72.4466216 1014.61025,72.6781641 1014.68948,72.8359148 C1014.76871,72.9943214 1014.92684,73.2648916 1015.16453,73.6486094 C1015.40222,74.0319992 1015.5324,74.2468156 1015.55509,74.2917467 C1017.27414,77.3841186 1019.24271,80.0350511 1021.45917,82.2474958 C1023.67661,84.4583007 1026.33491,86.4218208 1029.43374,88.1374002 C1029.47878,88.1600297 1029.69312,88.2899034 1030.07875,88.5270213 C1030.46372,88.7647952 1030.73461,88.9222179 1030.89242,89.0015851 C1031.05186,89.0796405 1031.28363,89.1763899 1031.58839,89.2888815 C1031.8938,89.4013732 1032.14858,89.457783 1032.35241,89.457783 C1032.75941,89.457783 1033.27982,89.1363783 1033.91366,88.4929131 C1034.54684,87.8497758 1035.14616,87.1505567 1035.71128,86.3942718 C1036.27707,85.637659 1036.89907,84.9384399 1037.57761,84.2949747 C1038.25583,83.6521654 1038.82096,83.3301048 1039.27332,83.3301048 C1039.58991,83.3301048 1039.91275,83.4094721 1040.24052,83.5668948 C1040.56927,83.7253013 1040.97035,83.9679946 1041.44573,84.2949747 C1041.92077,84.6229386 1042.2035,84.820045 1042.29391,84.8879335 C1042.85904,85.2257363 1043.46394,85.5756739 1044.10929,85.9364342 C1044.75397,86.2978504 1045.47263,86.693047 1046.26459,87.1216959 C1047.05557,87.5506727 1047.66672,87.8888035 1048.09575,88.1377281 C1049.67968,88.9264814 1050.5397,89.5253435 1050.67482,89.9313629 C1050.7432,90.0907534 1050.77706,90.3272154 1050.7764,90.6443565 C1050.7764,91.2537135 1050.66364,92.049026 1050.4368,93.0306221 C1050.21062,94.0128741 1049.97392,94.7855571 1049.72439,95.3489991 Z" id="Fill-19" fill="#FFFFFF"></path>
        <path d="M558.475174,57.6077893 C557.828514,59.1442707 555.952035,60.771317 552.844844,62.4902666 C549.951864,64.0557466 547.089295,64.8387097 544.258925,64.8387097 C543.428462,64.8387097 542.62036,64.7842815 541.835512,64.678548 C541.050665,64.5701377 540.166537,64.3783006 539.180447,64.1016983 C538.196592,63.825096 537.46541,63.6020296 536.98824,63.4329452 C536.511965,63.264307 535.657353,62.9497834 534.426641,62.4893744 C533.195928,62.0271808 532.442833,61.7510246 532.165565,61.6600135 C529.149603,60.5848335 526.456525,59.3111244 524.086778,57.8375477 C520.147782,55.4123699 516.078202,52.1038491 511.877591,47.914216 C507.67698,43.7232445 504.360943,39.6625438 501.930822,35.7330062 C500.453699,33.3689485 499.176477,30.6827829 498.099604,27.6745095 C498.007479,27.3979072 497.730211,26.6461734 497.268694,25.4179698 C496.807624,24.1897662 496.491896,23.3380987 496.322852,22.8625212 C496.154255,22.3873898 495.931099,21.6575165 495.653831,20.6755782 C495.376563,19.6927477 495.184264,18.8098509 495.076487,18.027334 C494.969158,17.2439248 494.915493,16.4377628 494.915493,15.6097403 C494.915493,12.7857198 495.699893,9.93002374 497.269141,7.04443682 C498.993122,3.94426004 500.623638,2.0718407 502.162475,1.42762494 C502.931671,1.08945628 503.985289,0.767348406 505.324226,0.460409044 C506.663162,0.153023548 507.747191,-7.10542736e-15 508.578995,-7.10542736e-15 C509.009208,-7.10542736e-15 509.332538,0.0463978106 509.548092,0.138301166 C510.102181,0.322107878 510.917439,1.48874513 511.993865,3.63776681 C512.332847,4.22086237 512.793917,5.05022323 513.378864,6.12361874 C513.96381,7.19835264 514.501799,8.17359893 514.994621,9.04846534 C515.487443,9.92333175 515.964165,10.7442161 516.425235,11.5111184 C516.517359,11.6346971 516.787025,12.0179252 517.233337,12.6625871 C517.679649,13.3076951 518.011029,13.8519771 518.226136,14.2981099 C518.440795,14.7433505 518.549019,15.1810067 518.549019,15.6106326 C518.549019,16.2245113 518.110309,16.9914136 517.233337,17.9126778 C516.356365,18.8330498 515.402921,19.6775792 514.371662,20.4449276 C513.340851,21.2118298 512.386512,22.0255761 511.50954,22.8848278 C510.633015,23.7445257 510.193858,24.4507539 510.193858,25.0030663 C510.193858,25.2796687 510.270778,25.6249754 510.425064,26.0394328 C510.578456,26.453444 510.70904,26.7684138 510.816817,26.9830037 C510.924594,27.1984858 511.1397,27.5665454 511.463031,28.0885207 C511.786361,28.61005 511.963455,28.902267 511.994312,28.9633871 C514.332755,33.1699733 517.010628,36.7760646 520.025695,39.7856765 C523.042103,42.7930576 526.658216,45.4640547 530.873585,47.7977753 C530.934852,47.8285585 531.226431,48.0052271 531.751004,48.3277811 C532.274683,48.6512274 532.643181,48.8653711 532.85784,48.9733352 C533.074736,49.0795148 533.390016,49.211124 533.804577,49.3641476 C534.220032,49.5171711 534.566617,49.593906 534.843885,49.593906 C535.397526,49.593906 536.105454,49.1566958 536.967669,48.2813833 C537.828989,47.4065169 538.644246,46.4553618 539.412994,45.4265795 C540.182637,44.3973512 541.028752,43.4461961 541.951786,42.5708835 C542.874373,41.6964632 543.643121,41.2583608 544.258478,41.2583608 C544.689137,41.2583608 545.128294,41.366325 545.574159,41.5804687 C546.021366,41.7959508 546.566958,42.1260891 547.213619,42.5708835 C547.859832,43.0170163 548.24443,43.2851421 548.367412,43.3774916 C549.13616,43.8370084 549.95902,44.3130321 550.836886,44.8037781 C551.713858,45.2954165 552.691452,45.8330065 553.768773,46.4161021 C554.844752,46.9996438 555.676109,47.4596067 556.259713,47.7982215 C558.414354,48.8711708 559.584247,49.6858093 559.768049,50.2381217 C559.861068,50.4549423 559.90713,50.776604 559.906236,51.2080144 C559.906236,52.0369291 559.752844,53.1188012 559.444271,54.4540766 C559.136593,55.7902443 558.814604,56.8413332 558.475174,57.6077893 Z" id="Fill-19" fill="#FFFFFF"></path>
    </g>
</svg>